IS415 - Take-home Exercise 2
…
5.4 Creating a function

5.5 Local Spatial Autocorrelation

5.6 Computing local moran’s I

filtered

Simple feature collection with 261 features and 17 fields
Geometry type: MULTIPOLYGON
Dimension:     XY
Bounding box:  xmin: -3644275 ymin: 663887.8 xmax: -3606237 ymax: 701380.1
Projected CRS: DGN95 / Indonesia TM-3 zone 54.1
# A tibble: 261 × 18
   date    villa…¹ city_…² subdi…³ ward  not_v…⁴ total…⁵ total…⁶ vacci…⁷ Objec…⁸
 * <fct>   <chr>   <chr>   <chr>   <chr>   <dbl>   <dbl>   <dbl>   <dbl>   <dbl>
 1 July 2… 317205… JAKART… PADEMA… ANCOL   13272   10401   23673   0.439   25455
 2 July 2… 317304… JAKART… TAMBORA ANGKE   16477   12520   28997   0.432   25486
 3 July 2… 317504… JAKART… KRAMAT… BALE…   18849    8945   27794   0.322   25605
 4 July 2… 317503… JAKART… JATINE… BALI…    5743    4454   10197   0.437   25595
 5 July 2… 317510… JAKART… CIPAYU… BAMB…   15407   11342   26749   0.424   25642
 6 July 2… 317403… JAKART… MAMPAN… BANG…   12503    9125   21628   0.422   25531
 7 July 2… 317505… JAKART… PASAR … BARU    11268   13656   24924   0.548   25609
 8 July 2… 317504… JAKART… KRAMAT… BATU…   30358   16274   46632   0.349   25604
 9 July 2… 317107… JAKART… TANAH … BEND…   11502   11065   22567   0.490   25418
10 July 2… 317503… JAKART… JATINE… BIDA…   23395   12966   36361   0.357   25594
# … with 251 more rows, 8 more variables: Village <chr>, Code <dbl>,
#   Province <chr>, City <chr>, District <chr>, Sub_District <chr>,
#   Total_Population <dbl>, geometry <MULTIPOLYGON [m]>, and abbreviated
#   variable names ¹​village_code, ²​city_region, ³​subdistrict, ⁴​not_vaccinated,
#   ⁵​total_vaccination, ⁶​total_population, ⁷​vaccination_rate, ⁸​Object_ID
# ℹ Use `print(n = ...)` to see more rows, and `colnames()` to see all variable names
…
