IS415 - Take-home Exercise 3: Predicting HDB Public Housing Resale Pricies using Geographically Weighted Methods
…
token <- "your value"
search_themes(token, "searchval")
get_theme_status(token, "themename")
themetibble <- get_theme(token, "themename")
themesf <- st_as_sf(themetibble, coords=c("Lng", "Lat"), crs=4326)

library(onemapsgapi)
token <- get_token("pengyouyun@gmail.com", "Learning@2015")
childcare<-get_theme(token,"childcare")
themes<-search_themes(token)
themes

# A tibble: 192 × 5
   THEMENAME                                       QUERY…¹ ICON  CATEG…² THEME…³
   <chr>                                           <chr>   <chr> <chr>   <chr>  
 1 MCE KPE Speed Camera                            mce_kp… icon… Commun… LAND T…
 2 Singapore Police Force Mobile Speed Cameras     spf_msc Spee… Commun… SINGAP…
 3 Liquor Control Zone(s) proclaimed under Liquor… liquor… Cres… Commun… SINGAP…
 4 Singapore Police Force - 32nd ASEAN Summit Ist… as_ist… Cres… Commun… SINGAP…
 5 Singapore Police Force - 32nd ASEAN Summit Ist… as_ist… Cres… Commun… SINGAP…
 6 Inland Ash Scattering Gardens                   ias     circ… Enviro… NATION…
 7 CET Centres                                     cetcen… WSQ.… Educat… SINGAP…
 8 HDB Branches                                    hdb_br… M090… Govern… HOUSIN…
 9 Licensed premises for petroleum products        custom… null  null    SINGAP…
10 NParks BBQ Pits                                 nparks… null  null    NATION…
# … with 182 more rows, and abbreviated variable names ¹​QUERYNAME, ²​CATEGORY,
#   ³​THEME_OWNER
…
resale.sf<- resale.sf |> 
  mutate() |> 
  rename("AREA_SQM" = "floor_area_sqm", 
         "LEASE_YRS" = "remaining_lease", 
         "PRICE"= "resale_price") |> 
  relocate(`PRICE`)

resale.sf

Simple feature collection with 22601 features and 46 fields
Geometry type: POINT
Dimension:     XY
Bounding box:  xmin: -13597400 ymin: 33765.23 xmax: 40133.15 ymax: 19891560
Projected CRS: SVY21 / Singapore TM
# A tibble: 22,601 × 47
    PRICE month   town     flat_…¹ block stree…² AREA_…³ flat_…⁴ lease…⁵ LEASE…⁶
    <dbl> <chr>   <chr>    <chr>   <chr> <chr>     <dbl> <chr>     <dbl> <chr>  
 1 370000 2021-01 ANG MO … 4 ROOM  547   ANG MO…      92 New Ge…    1981 59     
 2 375000 2021-01 ANG MO … 4 ROOM  414   ANG MO…      92 New Ge…    1979 57.75  
 3 380000 2021-01 ANG MO … 4 ROOM  509   ANG MO…      91 New Ge…    1980 58.5   
 4 385000 2021-01 ANG MO … 4 ROOM  467   ANG MO…      92 New Ge…    1979 57.92  
 5 410000 2021-01 ANG MO … 4 ROOM  571   ANG MO…      92 New Ge…    1979 57.42  
 6 410000 2021-01 ANG MO … 4 ROOM  134   ANG MO…      98 New Ge…    1978 56.75  
 7 410000 2021-01 ANG MO … 4 ROOM  204   ANG MO…      92 New Ge…    1977 55.08  
 8 418000 2021-01 ANG MO … 4 ROOM  429   ANG MO…      92 New Ge…    1978 56.83  
 9 420000 2021-01 ANG MO … 4 ROOM  413   ANG MO…      92 New Ge…    1979 57.67  
10 420000 2021-01 ANG MO … 4 ROOM  415   ANG MO…      92 New Ge…    1979 57.67  
# … with 22,591 more rows, 37 more variables: `04 TO 06` <dbl>,
#   `01 TO 03` <dbl>, `07 TO 09` <dbl>, `10 TO 12` <dbl>, `13 TO 15` <dbl>,
#   `16 TO 18` <dbl>, `19 TO 21` <dbl>, `22 TO 24` <dbl>, `28 TO 30` <dbl>,
#   `25 TO 27` <dbl>, `31 TO 33` <dbl>, `43 TO 45` <dbl>, `34 TO 36` <dbl>,
#   `37 TO 39` <dbl>, `40 TO 42` <dbl>, `46 TO 48` <dbl>, `49 TO 51` <dbl>,
#   geometry <POINT [m]>, PROX_CBD <dbl>, PROX_ELDERCARE <dbl>,
#   PROX_HAWKERCENTRE <dbl>, PROX_CHILDCARE <dbl>, PROX_KINDERGARTEN <dbl>, …
…
