IS415 - Hands-on_Ex01
…
Rows: 6893 Columns: 18
── Column specification ────────────────────────────────────────────────────────
Delimiter: ","
chr   (5): name, host_name, neighbourhood, room_type, license
dbl  (11): id, host_id, latitude, longitude, price, minimum_nights, number_o...
lgl   (1): neighbourhood_group
date  (1): last_review

ℹ Use `spec()` to retrieve the full column specification for this data.
ℹ Specify the column types or set `show_col_types = FALSE` to quiet this message.

list(listings)

[[1]]
# A tibble: 6,893 × 18
      id name      host_id host_…¹ neigh…² neigh…³ latit…⁴ longi…⁵ room_…⁶ price
   <dbl> <chr>       <dbl> <chr>   <lgl>   <chr>     <dbl>   <dbl> <chr>   <dbl>
 1  2818 Quiet Ga…    3159 Daniel  NA      Oostel…    52.4    4.94 Privat…    49
 2 20168 Studio w…   59484 Alexan… NA      Centru…    52.4    4.89 Privat…   106
 3 27886 Romantic…   97647 Flip    NA      Centru…    52.4    4.89 Privat…   136
 4 28871 Comforta…  124245 Edwin   NA      Centru…    52.4    4.89 Privat…    75
 5 29051 Comforta…  124245 Edwin   NA      Centru…    52.4    4.89 Privat…    55
 6 44391 Quiet 2-…  194779 Jan     NA      Centru…    52.4    4.91 Entire…   240
 7 49552 Multatul…  225987 Joanna… NA      Centru…    52.4    4.89 Entire…   245
 8 50523 B & B de…  231946 Raymond NA      Centru…    52.4    4.88 Privat…   124
 9 55709 Bright L…  263233 Jan-Wi… NA      Centru…    52.4    4.90 Entire…   250
10 55868 Apartmen…  264178 Cornel… NA      Zuid       52.4    4.89 Entire…   149
# … with 6,883 more rows, 8 more variables: minimum_nights <dbl>,
#   number_of_reviews <dbl>, last_review <date>, reviews_per_month <dbl>,
#   calculated_host_listings_count <dbl>, availability_365 <dbl>,
#   number_of_reviews_ltm <dbl>, license <chr>, and abbreviated variable names
#   ¹​host_name, ²​neighbourhood_group, ³​neighbourhood, ⁴​latitude, ⁵​longitude,
#   ⁶​room_type
…
